{
  "@graph" : [ {
    "@id" : "_:b0",
    "@type" : "ome:Color",
    "value" : "-2147483648"
  }, {
    "@id" : "_:b1",
    "@type" : "PATO:0000117",
    "unit" : "unitLength:um",
    "value" : {
      "@type" : "xsd:float",
      "@value" : "100000.0"
    }
  }, {
    "@id" : "dimensionOrder:xyczt",
    "@type" : "ome:DimensionOrder"
  }, {
    "@id" : "pixelType:uint8",
    "@type" : "ome:PixelType"
  }, {
    "@id" : "unitLength:um",
    "@type" : "rdfs:Class"
  }, {
    "@id" : "bindata:bindata0",
    "@type" : "ome:BinData",
    "ome:bigEndian" : false,
    "data" : "/wCrzur//wB5oMPi/wBIbJO3AP8ePGCF",
    "length" : "32"
  }, {
    "@id" : "bindata:bindata1",
    "@type" : "ome:BinData",
    "ome:bigEndian" : false,
    "data" : "/wCrzur//wB5oMPi/wBIbJO3AP8ePGCF",
    "length" : "32"
  }, {
    "@id" : "bindata:bindata10",
    "@type" : "ome:BinData",
    "ome:bigEndian" : false,
    "data" : "/wCrzur//wB5oMPi/wBIbJO3AP8ePGCF",
    "length" : "32"
  }, {
    "@id" : "bindata:bindata2",
    "@type" : "ome:BinData",
    "ome:bigEndian" : false,
    "data" : "/wCrzur//wB5oMPi/wBIbJO3AP8ePGCF",
    "length" : "32"
  }, {
    "@id" : "bindata:bindata3",
    "@type" : "ome:BinData",
    "ome:bigEndian" : false,
    "data" : "/wCrzur//wB5oMPi/wBIbJO3AP8ePGCF",
    "length" : "32"
  }, {
    "@id" : "bindata:bindata4",
    "@type" : "ome:BinData",
    "ome:bigEndian" : false,
    "data" : "/wCrzur//wB5oMPi/wBIbJO3AP8ePGCF",
    "length" : "32"
  }, {
    "@id" : "bindata:bindata5",
    "@type" : "ome:BinData",
    "ome:bigEndian" : false,
    "data" : "/wCrzur//wB5oMPi/wBIbJO3AP8ePGCF",
    "length" : "32"
  }, {
    "@id" : "bindata:bindata6",
    "@type" : "ome:BinData",
    "ome:bigEndian" : false,
    "data" : "/wCrzur//wB5oMPi/wBIbJO3AP8ePGCF",
    "length" : "32"
  }, {
    "@id" : "bindata:bindata7",
    "@type" : "ome:BinData",
    "ome:bigEndian" : false,
    "data" : "/wCrzur//wB5oMPi/wBIbJO3AP8ePGCF",
    "length" : "32"
  }, {
    "@id" : "bindata:bindata8",
    "@type" : "ome:BinData",
    "ome:bigEndian" : false,
    "data" : "/wCrzur//wB5oMPi/wBIbJO3AP8ePGCF",
    "length" : "32"
  }, {
    "@id" : "bindata:bindata9",
    "@type" : "ome:BinData",
    "ome:bigEndian" : false,
    "data" : "/wCrzur//wB5oMPi/wBIbJO3AP8ePGCF",
    "length" : "32"
  }, {
    "@id" : "channel:channel0",
    "@type" : "ome:Channel",
    "identifier" : "Channel:0",
    "color" : "_:b0"
  }, {
    "@id" : "channel:channel1",
    "@type" : "ome:Channel",
    "identifier" : "Channel:1",
    "color" : "_:b0"
  }, {
    "@id" : "channel:channel10",
    "@type" : "ome:Channel",
    "identifier" : "Channel:10",
    "color" : "_:b0"
  }, {
    "@id" : "channel:channel2",
    "@type" : "ome:Channel",
    "identifier" : "Channel:2",
    "color" : "_:b0"
  }, {
    "@id" : "channel:channel3",
    "@type" : "ome:Channel",
    "identifier" : "Channel:3",
    "color" : "_:b0"
  }, {
    "@id" : "channel:channel4",
    "@type" : "ome:Channel",
    "identifier" : "Channel:4",
    "color" : "_:b0"
  }, {
    "@id" : "channel:channel5",
    "@type" : "ome:Channel",
    "identifier" : "Channel:5",
    "color" : "_:b0"
  }, {
    "@id" : "channel:channel6",
    "@type" : "ome:Channel",
    "identifier" : "Channel:6",
    "color" : "_:b0"
  }, {
    "@id" : "channel:channel7",
    "@type" : "ome:Channel",
    "identifier" : "Channel:7",
    "color" : "_:b0"
  }, {
    "@id" : "channel:channel8",
    "@type" : "ome:Channel",
    "identifier" : "Channel:8",
    "color" : "_:b0"
  }, {
    "@id" : "channel:channel9",
    "@type" : "ome:Channel",
    "identifier" : "Channel:9",
    "color" : "_:b0"
  }, {
    "@id" : "image:image0",
    "@type" : "ome:Image",
    "identifier" : "Image:0",
    "acquisitionDate" : "2010-02-23T12:51:30",
    "ome:pixels" : {
      "@id" : "pixels:pixels0"
    },
    "label" : {
      "@language" : "en",
      "@value" : "6x6x1x8-swatch.tif"
    }
  }, {
    "@id" : "image:image1",
    "@type" : "ome:Image",
    "identifier" : "Image:1",
    "acquisitionDate" : "2010-02-23T12:51:30",
    "ome:pixels" : {
      "@id" : "pixels:pixels1"
    },
    "label" : {
      "@language" : "en",
      "@value" : "6x6x1x8-swatch.tif-1"
    }
  }, {
    "@id" : "image:image10",
    "@type" : "ome:Image",
    "identifier" : "Image:10",
    "acquisitionDate" : "2010-02-23T12:51:30",
    "ome:pixels" : {
      "@id" : "pixels:pixels10"
    },
    "label" : {
      "@language" : "en",
      "@value" : "6x6x1x8-swatch.tif-10"
    }
  }, {
    "@id" : "image:image2",
    "@type" : "ome:Image",
    "identifier" : "Image:2",
    "acquisitionDate" : "2010-02-23T12:51:30",
    "ome:pixels" : {
      "@id" : "pixels:pixels2"
    },
    "label" : {
      "@language" : "en",
      "@value" : "6x6x1x8-swatch.tif-2"
    }
  }, {
    "@id" : "image:image3",
    "@type" : "ome:Image",
    "identifier" : "Image:3",
    "acquisitionDate" : "2010-02-23T12:51:30",
    "ome:pixels" : {
      "@id" : "pixels:pixels3"
    },
    "label" : {
      "@language" : "en",
      "@value" : "6x6x1x8-swatch.tif-3"
    }
  }, {
    "@id" : "image:image4",
    "@type" : "ome:Image",
    "identifier" : "Image:4",
    "acquisitionDate" : "2010-02-23T12:51:30",
    "ome:pixels" : {
      "@id" : "pixels:pixels4"
    },
    "label" : {
      "@language" : "en",
      "@value" : "6x6x1x8-swatch.tif-4"
    }
  }, {
    "@id" : "image:image5",
    "@type" : "ome:Image",
    "identifier" : "Image:5",
    "acquisitionDate" : "2010-02-23T12:51:30",
    "ome:pixels" : {
      "@id" : "pixels:pixels5"
    },
    "label" : {
      "@language" : "en",
      "@value" : "6x6x1x8-swatch.tif-5"
    }
  }, {
    "@id" : "image:image6",
    "@type" : "ome:Image",
    "identifier" : "Image:6",
    "acquisitionDate" : "2010-02-23T12:51:30",
    "ome:pixels" : {
      "@id" : "pixels:pixels6"
    },
    "label" : {
      "@language" : "en",
      "@value" : "6x6x1x8-swatch.tif-6"
    }
  }, {
    "@id" : "image:image7",
    "@type" : "ome:Image",
    "identifier" : "Image:7",
    "acquisitionDate" : "2010-02-23T12:51:30",
    "ome:pixels" : {
      "@id" : "pixels:pixels7"
    },
    "label" : {
      "@language" : "en",
      "@value" : "6x6x1x8-swatch.tif-7"
    }
  }, {
    "@id" : "image:image8",
    "@type" : "ome:Image",
    "identifier" : "Image:8",
    "acquisitionDate" : "2010-02-23T12:51:30",
    "ome:pixels" : {
      "@id" : "pixels:pixels8"
    },
    "label" : {
      "@language" : "en",
      "@value" : "6x6x1x8-swatch.tif-8"
    }
  }, {
    "@id" : "image:image9",
    "@type" : "ome:Image",
    "identifier" : "Image:9",
    "acquisitionDate" : "2010-02-23T12:51:30",
    "ome:pixels" : {
      "@id" : "pixels:pixels9"
    },
    "label" : {
      "@language" : "en",
      "@value" : "6x6x1x8-swatch.tif-9"
    }
  }, {
    "@id" : "pixels:pixels0",
    "@type" : "ome:Pixels",
    "identifier" : "Pixels:0.0",
    "binData" : "bindata:bindata0",
    "ome:channel" : {
      "@id" : "channel:channel0"
    },
    "ome:dimensionOrder" : {
      "@id" : "dimensionOrder:xyczt"
    },
    "physicalSizeX" : "_:b1",
    "physicalSizeY" : "_:b1",
    "ome:pixelType" : {
      "@id" : "pixelType:uint8"
    },
    "sizeC" : "1",
    "sizeT" : "1",
    "sizeX" : "6",
    "sizeY" : "4",
    "sizeZ" : "1"
  }, {
    "@id" : "pixels:pixels1",
    "@type" : "ome:Pixels",
    "identifier" : "Pixels:1.0",
    "binData" : "bindata:bindata1",
    "ome:channel" : {
      "@id" : "channel:channel1"
    },
    "ome:dimensionOrder" : {
      "@id" : "dimensionOrder:xyczt"
    },
    "physicalSizeX" : "_:b1",
    "physicalSizeY" : "_:b1",
    "ome:pixelType" : {
      "@id" : "pixelType:uint8"
    },
    "sizeC" : "1",
    "sizeT" : "1",
    "sizeX" : "6",
    "sizeY" : "4",
    "sizeZ" : "1"
  }, {
    "@id" : "pixels:pixels10",
    "@type" : "ome:Pixels",
    "identifier" : "Pixels:10.0",
    "binData" : "bindata:bindata10",
    "ome:channel" : {
      "@id" : "channel:channel10"
    },
    "ome:dimensionOrder" : {
      "@id" : "dimensionOrder:xyczt"
    },
    "physicalSizeX" : "_:b1",
    "physicalSizeY" : "_:b1",
    "ome:pixelType" : {
      "@id" : "pixelType:uint8"
    },
    "sizeC" : "1",
    "sizeT" : "1",
    "sizeX" : "6",
    "sizeY" : "4",
    "sizeZ" : "1"
  }, {
    "@id" : "pixels:pixels2",
    "@type" : "ome:Pixels",
    "identifier" : "Pixels:2.0",
    "binData" : "bindata:bindata2",
    "ome:channel" : {
      "@id" : "channel:channel2"
    },
    "ome:dimensionOrder" : {
      "@id" : "dimensionOrder:xyczt"
    },
    "physicalSizeX" : "_:b1",
    "physicalSizeY" : "_:b1",
    "ome:pixelType" : {
      "@id" : "pixelType:uint8"
    },
    "sizeC" : "1",
    "sizeT" : "1",
    "sizeX" : "6",
    "sizeY" : "4",
    "sizeZ" : "1"
  }, {
    "@id" : "pixels:pixels3",
    "@type" : "ome:Pixels",
    "identifier" : "Pixels:3.0",
    "binData" : "bindata:bindata3",
    "ome:channel" : {
      "@id" : "channel:channel3"
    },
    "ome:dimensionOrder" : {
      "@id" : "dimensionOrder:xyczt"
    },
    "physicalSizeX" : "_:b1",
    "physicalSizeY" : "_:b1",
    "ome:pixelType" : {
      "@id" : "pixelType:uint8"
    },
    "sizeC" : "1",
    "sizeT" : "1",
    "sizeX" : "6",
    "sizeY" : "4",
    "sizeZ" : "1"
  }, {
    "@id" : "pixels:pixels4",
    "@type" : "ome:Pixels",
    "identifier" : "Pixels:4.0",
    "binData" : "bindata:bindata4",
    "ome:channel" : {
      "@id" : "channel:channel4"
    },
    "ome:dimensionOrder" : {
      "@id" : "dimensionOrder:xyczt"
    },
    "physicalSizeX" : "_:b1",
    "physicalSizeY" : "_:b1",
    "ome:pixelType" : {
      "@id" : "pixelType:uint8"
    },
    "sizeC" : "1",
    "sizeT" : "1",
    "sizeX" : "6",
    "sizeY" : "4",
    "sizeZ" : "1"
  }, {
    "@id" : "pixels:pixels5",
    "@type" : "ome:Pixels",
    "identifier" : "Pixels:5.0",
    "binData" : "bindata:bindata5",
    "ome:channel" : {
      "@id" : "channel:channel5"
    },
    "ome:dimensionOrder" : {
      "@id" : "dimensionOrder:xyczt"
    },
    "physicalSizeX" : "_:b1",
    "physicalSizeY" : "_:b1",
    "ome:pixelType" : {
      "@id" : "pixelType:uint8"
    },
    "sizeC" : "1",
    "sizeT" : "1",
    "sizeX" : "6",
    "sizeY" : "4",
    "sizeZ" : "1"
  }, {
    "@id" : "pixels:pixels6",
    "@type" : "ome:Pixels",
    "identifier" : "Pixels:6.0",
    "binData" : "bindata:bindata6",
    "ome:channel" : {
      "@id" : "channel:channel6"
    },
    "ome:dimensionOrder" : {
      "@id" : "dimensionOrder:xyczt"
    },
    "physicalSizeX" : "_:b1",
    "physicalSizeY" : "_:b1",
    "ome:pixelType" : {
      "@id" : "pixelType:uint8"
    },
    "sizeC" : "1",
    "sizeT" : "1",
    "sizeX" : "6",
    "sizeY" : "4",
    "sizeZ" : "1"
  }, {
    "@id" : "pixels:pixels7",
    "@type" : "ome:Pixels",
    "identifier" : "Pixels:7.0",
    "binData" : "bindata:bindata7",
    "ome:channel" : {
      "@id" : "channel:channel7"
    },
    "ome:dimensionOrder" : {
      "@id" : "dimensionOrder:xyczt"
    },
    "physicalSizeX" : "_:b1",
    "physicalSizeY" : "_:b1",
    "ome:pixelType" : {
      "@id" : "pixelType:uint8"
    },
    "sizeC" : "1",
    "sizeT" : "1",
    "sizeX" : "6",
    "sizeY" : "4",
    "sizeZ" : "1"
  }, {
    "@id" : "pixels:pixels8",
    "@type" : "ome:Pixels",
    "identifier" : "Pixels:8.0",
    "binData" : "bindata:bindata8",
    "ome:channel" : {
      "@id" : "channel:channel8"
    },
    "ome:dimensionOrder" : {
      "@id" : "dimensionOrder:xyczt"
    },
    "physicalSizeX" : "_:b1",
    "physicalSizeY" : "_:b1",
    "ome:pixelType" : {
      "@id" : "pixelType:uint8"
    },
    "sizeC" : "1",
    "sizeT" : "1",
    "sizeX" : "6",
    "sizeY" : "4",
    "sizeZ" : "1"
  }, {
    "@id" : "pixels:pixels9",
    "@type" : "ome:Pixels",
    "identifier" : "Pixels:9.0",
    "binData" : "bindata:bindata9",
    "ome:channel" : {
      "@id" : "channel:channel9"
    },
    "ome:dimensionOrder" : {
      "@id" : "dimensionOrder:xyczt"
    },
    "physicalSizeX" : "_:b1",
    "physicalSizeY" : "_:b1",
    "ome:pixelType" : {
      "@id" : "pixelType:uint8"
    },
    "sizeC" : "1",
    "sizeT" : "1",
    "sizeX" : "6",
    "sizeY" : "4",
    "sizeZ" : "1"
  }, {
    "@id" : "plateAcquisition:plateAcquisition1.1",
    "@type" : "ome:PlateAcquisition",
    "identifier" : "PlateAcquisition:Plate:1:ScreenAcquisition:1",
    "endTime" : "2010-02-23T12:50:30",
    "startTime" : "2010-02-23T12:49:30",
    "ome:wellSample" : [ {
      "@id" : "wellSample:wellSample1.2.2.1"
    }, {
      "@id" : "wellSample:wellSample1.1.2.1"
    }, {
      "@id" : "wellSample:wellSample1.2.1.1"
    }, {
      "@id" : "wellSample:wellSample1.1.1.1"
    } ]
  }, {
    "@id" : "plateAcquisition:plateAcquisition1.2",
    "@type" : "ome:PlateAcquisition",
    "identifier" : "PlateAcquisition:Plate:1:ScreenAcquisition:2",
    "endTime" : "2010-02-23T12:51:29",
    "startTime" : "2010-02-23T12:50:30",
    "ome:wellSample" : [ {
      "@id" : "wellSample:wellSample1.2.2.2"
    }, {
      "@id" : "wellSample:wellSample1.1.2.2"
    }, {
      "@id" : "wellSample:wellSample1.2.1.2"
    }, {
      "@id" : "wellSample:wellSample1.1.1.2"
    } ]
  }, {
    "@id" : "plate:plate1",
    "@type" : "ome:Plate",
    "identifier" : "Plate:1",
    "ome:plateAcquisition" : [ {
      "@id" : "plateAcquisition:plateAcquisition1.2"
    }, {
      "@id" : "plateAcquisition:plateAcquisition1.1"
    } ],
    "ome:well" : [ {
      "@id" : "well:well1.2.2"
    }, {
      "@id" : "well:well1.1.2"
    }, {
      "@id" : "well:well1.2.1"
    }, {
      "@id" : "well:well1.1.1"
    } ],
    "comment" : {
      "@language" : "en",
      "@value" : "Plate 1 description"
    }
  }, {
    "@id" : "reagent:reagent1",
    "@type" : "ome:Reagent",
    "identifier" : "Reagent:1"
  }, {
    "@id" : "reagentSet:reagentSet1",
    "@type" : "ome:ReagentSet",
    "ome:reagent" : {
      "@id" : "reagent:reagent1"
    }
  }, {
    "@id" : "screen:screen1",
    "@type" : "ome:Screen",
    "identifier" : "Screen:1",
    "ome:plate" : {
      "@id" : "plate:plate1"
    },
    "ome:reagentSet" : {
      "@id" : "reagentSet:reagentSet1"
    }
  }, {
    "@id" : "well:well1.1.1",
    "@type" : "ome:Well",
    "identifier" : "Well:1.1.1",
    "column" : "1",
    "ome:reagent" : {
      "@id" : "reagent:reagent1"
    },
    "row" : "1",
    "ome:wellSample" : [ {
      "@id" : "wellSample:wellSample1.1.1.2"
    }, {
      "@id" : "wellSample:wellSample1.1.1.1"
    } ]
  }, {
    "@id" : "well:well1.1.2",
    "@type" : "ome:Well",
    "identifier" : "Well:1.1.2",
    "column" : "1",
    "ome:reagent" : {
      "@id" : "reagent:reagent1"
    },
    "row" : "2",
    "ome:wellSample" : [ {
      "@id" : "wellSample:wellSample1.1.2.4"
    }, {
      "@id" : "wellSample:wellSample1.1.2.2"
    }, {
      "@id" : "wellSample:wellSample1.1.2.3"
    }, {
      "@id" : "wellSample:wellSample1.1.2.5"
    }, {
      "@id" : "wellSample:wellSample1.1.2.1"
    } ]
  }, {
    "@id" : "well:well1.2.1",
    "@type" : "ome:Well",
    "identifier" : "Well:1.2.1",
    "column" : "2",
    "ome:reagent" : {
      "@id" : "reagent:reagent1"
    },
    "row" : "1",
    "ome:wellSample" : [ {
      "@id" : "wellSample:wellSample1.2.1.2"
    }, {
      "@id" : "wellSample:wellSample1.2.1.1"
    } ]
  }, {
    "@id" : "well:well1.2.2",
    "@type" : "ome:Well",
    "identifier" : "Well:1.2.2",
    "column" : "2",
    "ome:reagent" : {
      "@id" : "reagent:reagent1"
    },
    "row" : "2",
    "ome:wellSample" : [ {
      "@id" : "wellSample:wellSample1.2.2.2"
    }, {
      "@id" : "wellSample:wellSample1.2.2.1"
    } ]
  }, {
    "@id" : "wellSample:wellSample1.1.1.1",
    "@type" : "ome:WellSample",
    "identifier" : "WellSample:1.1.1.1",
    "ome:image" : {
      "@id" : "image:image0"
    },
    "index" : "1"
  }, {
    "@id" : "wellSample:wellSample1.1.1.2",
    "@type" : "ome:WellSample",
    "identifier" : "WellSample:1.1.1.2",
    "ome:image" : {
      "@id" : "image:image1"
    },
    "index" : "5"
  }, {
    "@id" : "wellSample:wellSample1.1.2.1",
    "@type" : "ome:WellSample",
    "identifier" : "WellSample:1.1.2.1",
    "ome:image" : {
      "@id" : "image:image4"
    },
    "index" : "3"
  }, {
    "@id" : "wellSample:wellSample1.1.2.2",
    "@type" : "ome:WellSample",
    "identifier" : "WellSample:1.1.2.2",
    "ome:image" : {
      "@id" : "image:image5"
    },
    "index" : "7"
  }, {
    "@id" : "wellSample:wellSample1.1.2.3",
    "@type" : "ome:WellSample",
    "identifier" : "WellSample:1.1.2.3",
    "ome:image" : {
      "@id" : "image:image6"
    },
    "index" : "11"
  }, {
    "@id" : "wellSample:wellSample1.1.2.4",
    "@type" : "ome:WellSample",
    "identifier" : "WellSample:1.1.2.4",
    "ome:image" : {
      "@id" : "image:image7"
    },
    "index" : "15"
  }, {
    "@id" : "wellSample:wellSample1.1.2.5",
    "@type" : "ome:WellSample",
    "identifier" : "WellSample:1.1.2.5",
    "ome:image" : {
      "@id" : "image:image8"
    },
    "index" : "19"
  }, {
    "@id" : "wellSample:wellSample1.2.1.1",
    "@type" : "ome:WellSample",
    "identifier" : "WellSample:1.2.1.1",
    "ome:image" : {
      "@id" : "image:image2"
    },
    "index" : "2"
  }, {
    "@id" : "wellSample:wellSample1.2.1.2",
    "@type" : "ome:WellSample",
    "identifier" : "WellSample:1.2.1.2",
    "ome:image" : {
      "@id" : "image:image3"
    },
    "index" : "6"
  }, {
    "@id" : "wellSample:wellSample1.2.2.1",
    "@type" : "ome:WellSample",
    "identifier" : "WellSample:1.2.2.1",
    "ome:image" : {
      "@id" : "image:image9"
    },
    "index" : "4"
  }, {
    "@id" : "wellSample:wellSample1.2.2.2",
    "@type" : "ome:WellSample",
    "identifier" : "WellSample:1.2.2.2",
    "ome:image" : {
      "@id" : "image:image10"
    },
    "index" : "8"
  } ],
  "@context" : {
    "length" : {
      "@id" : "http://www.openmicroscopy.org/rdf/2016-06/ome_core/length",
      "@type" : "http://www.w3.org/2001/XMLSchema#nonNegativeLong"
    },
    "data" : {
      "@id" : "http://www.openmicroscopy.org/rdf/2016-06/ome_core/data",
      "@type" : "http://www.w3.org/2001/XMLSchema#base64Binary"
    },
    "bigEndian" : {
      "@id" : "http://www.openmicroscopy.org/rdf/2016-06/ome_core/bigEndian",
      "@type" : "http://www.w3.org/2001/XMLSchema#boolean"
    },
    "value" : {
      "@id" : "http://www.w3.org/1999/02/22-rdf-syntax-ns#value"
    },
    "acquisitionDate" : {
      "@id" : "http://www.openmicroscopy.org/rdf/2016-06/ome_core/acquisitionDate"
    },
    "pixels" : "http://www.openmicroscopy.org/rdf/2016-06/ome_core/samples/one-screen-one-plate-four-wells/pixels/",
    "label" : {
      "@id" : "http://www.w3.org/2000/01/rdf-schema#label"
    },
    "identifier" : {
      "@id" : "http://purl.org/dc/terms/identifier"
    },
    "color" : {
      "@id" : "http://www.openmicroscopy.org/rdf/2016-06/ome_core/color",
      "@type" : "@id"
    },
    "channel" : "http://www.openmicroscopy.org/rdf/2016-06/ome_core/samples/one-screen-one-plate-four-wells/channel/",
    "physicalSizeY" : {
      "@id" : "http://www.openmicroscopy.org/rdf/2016-06/ome_core/physicalSizeY",
      "@type" : "@id"
    },
    "binData" : {
      "@id" : "http://www.openmicroscopy.org/rdf/2016-06/ome_core/binData",
      "@type" : "@id"
    },
    "sizeZ" : {
      "@id" : "http://www.openmicroscopy.org/rdf/2016-06/ome_core/sizeZ",
      "@type" : "http://www.w3.org/2001/XMLSchema#positiveInteger"
    },
    "sizeY" : {
      "@id" : "http://www.openmicroscopy.org/rdf/2016-06/ome_core/sizeY",
      "@type" : "http://www.w3.org/2001/XMLSchema#positiveInteger"
    },
    "sizeX" : {
      "@id" : "http://www.openmicroscopy.org/rdf/2016-06/ome_core/sizeX",
      "@type" : "http://www.w3.org/2001/XMLSchema#positiveInteger"
    },
    "physicalSizeX" : {
      "@id" : "http://www.openmicroscopy.org/rdf/2016-06/ome_core/physicalSizeX",
      "@type" : "@id"
    },
    "dimensionOrder" : "http://www.openmicroscopy.org/rdf/2016-06/ome_core/DimensionOrder#",
    "sizeC" : {
      "@id" : "http://www.openmicroscopy.org/rdf/2016-06/ome_core/sizeC",
      "@type" : "http://www.w3.org/2001/XMLSchema#positiveInteger"
    },
    "sizeT" : {
      "@id" : "http://www.openmicroscopy.org/rdf/2016-06/ome_core/sizeT",
      "@type" : "http://www.w3.org/2001/XMLSchema#positiveInteger"
    },
    "pixelType" : "http://www.openmicroscopy.org/rdf/2016-06/ome_core/PixelType#",
    "index" : {
      "@id" : "http://www.openmicroscopy.org/rdf/2016-06/ome_core/index",
      "@type" : "http://www.w3.org/2001/XMLSchema#nonNegativeInteger"
    },
    "image" : "http://www.openmicroscopy.org/rdf/2016-06/ome_core/samples/one-screen-one-plate-four-wells/image/",
    "unit" : {
      "@id" : "http://qudt.org/schema/qudt/unit",
      "@type" : "@id"
    },
    "well" : "http://www.openmicroscopy.org/rdf/2016-06/ome_core/samples/one-screen-one-plate-four-wells/well/",
    "plateAcquisition" : "http://www.openmicroscopy.org/rdf/2016-06/ome_core/samples/one-screen-one-plate-four-wells/plageAcquisition/",
    "comment" : {
      "@id" : "http://www.w3.org/2000/01/rdf-schema#comment"
    },
    "reagent" : "http://www.openmicroscopy.org/rdf/2016-06/ome_core/samples/one-screen-one-plate-four-wells/reagent/",
    "wellSample" : "http://www.openmicroscopy.org/rdf/2016-06/ome_core/samples/one-screen-one-plate-four-wells/wellSample/",
    "column" : {
      "@id" : "http://www.openmicroscopy.org/rdf/2016-06/ome_core/column",
      "@type" : "http://www.w3.org/2001/XMLSchema#nonNegativeInteger"
    },
    "row" : {
      "@id" : "http://www.openmicroscopy.org/rdf/2016-06/ome_core/row",
      "@type" : "http://www.w3.org/2001/XMLSchema#nonNegativeInteger"
    },
    "reagentSet" : "http://www.openmicroscopy.org/rdf/2016-06/ome_core/samples/one-screen-one-plate-four-wells/reagentSet/",
    "plate" : "http://www.openmicroscopy.org/rdf/2016-06/ome_core/samples/one-screen-one-plate-four-wells/plate/",
    "endTime" : {
      "@id" : "http://www.openmicroscopy.org/rdf/2016-06/ome_core/endTime"
    },
    "startTime" : {
      "@id" : "http://www.openmicroscopy.org/rdf/2016-06/ome_core/startTime"
    },
    "qudt" : "http://qudt.org/schema/qudt/",
    "owl" : "http://www.w3.org/2002/07/owl#",
    "ome" : "http://www.openmicroscopy.org/rdf/2016-06/ome_core/",
    "xsd" : "http://www.w3.org/2001/XMLSchema#",
    "PATO" : "http://purl.obolibrary.org/obo/PATO_",
    "screen" : "http://www.openmicroscopy.org/rdf/2016-06/ome_core/samples/one-screen-one-plate-four-wells/screen/",
    "rdfs" : "http://www.w3.org/2000/01/rdf-schema#",
    "acquisitionMode" : "http://www.openmicroscopy.org/rdf/2016-06/ome_core/AcquisitionMode#",
    "unitLength" : "http://www.openmicroscopy.org/rdf/2016-06/ome_core/Unit/UnitLength#",
    "xml" : "http://www.w3.org/XML/1998/namespace",
    "dcterms" : "http://purl.org/dc/terms/",
    "UO" : "http://purl.obolibrary.org/obo/uo#",
    "foaf" : "http://xmlns.com/foaf/0.1/",
    "rdf" : "http://www.w3.org/1999/02/22-rdf-syntax-ns#",
    "bindata" : "http://www.openmicroscopy.org/rdf/2016-06/ome_core/samples/one-screen-one-plate-four-wells/bindata/"
  }
}
