{
  "@graph" : [ {
    "@id" : "_:b0",
    "@type" : "ome:Manufacturer",
    "rdfs:label" : {
      "@language" : "en",
      "@value" : "OME-Labs"
    }
  }, {
    "@id" : "_:b1",
    "@type" : "rdf:Bag",
    "li" : [ "label:shape13", "label:shape12" ]
  }, {
    "@id" : "_:b10",
    "@type" : "ome:Color",
    "value" : "-1474836488"
  }, {
    "@id" : "_:b11",
    "@type" : "ome:Color",
    "value" : "17"
  }, {
    "@id" : "_:b12",
    "@type" : "rdf:Bag",
    "li" : "label:shape11"
  }, {
    "@id" : "_:b13",
    "@type" : "ome:Color",
    "value" : "-2144364811"
  }, {
    "@id" : "_:b14",
    "@type" : "ome:Color",
    "value" : "171"
  }, {
    "@id" : "_:b15",
    "@type" : "rdf:Bag",
    "li" : "point:shape1"
  }, {
    "@id" : "_:b16",
    "@type" : "ome:Color",
    "value" : "-1147483648"
  }, {
    "@id" : "_:b17",
    "@type" : "PATO:0000921",
    "unit" : "unitLength:pt",
    "value" : {
      "@type" : "xsd:float",
      "@value" : "1.0"
    }
  }, {
    "@id" : "_:b18",
    "@type" : "ome:Color",
    "value" : "16"
  }, {
    "@id" : "_:b19",
    "@type" : "ome:Color",
    "value" : "1"
  }, {
    "@id" : "_:b2",
    "@type" : "ome:Color",
    "value" : "172"
  }, {
    "@id" : "_:b20",
    "@type" : "rdf:Bag",
    "li" : "point:shape0"
  }, {
    "@id" : "_:b21",
    "@type" : "PATO:0000117",
    "unit" : "unitLength:pt",
    "value" : {
      "@type" : "xsd:float",
      "@value" : "1.0"
    }
  }, {
    "@id" : "_:b22",
    "@type" : "ome:Color",
    "value" : "161"
  }, {
    "@id" : "_:b3",
    "@type" : "rdf:Bag",
    "li" : [ "line:shape9", "line:shape8", "line:shape7", "polyline:shape6", "polyline:shape5", "polygon:shape4", "label:shape3", "rectangle:shape2" ]
  }, {
    "@id" : "_:b4",
    "@type" : "ome:Color",
    "value" : "-2147483648"
  }, {
    "@id" : "_:b5",
    "@type" : "ome:StructuredAnnotations",
    "annotation" : [ "timestampAnnotation:timestampAnnotation4", "timestampAnnotation:timestampAnnotation3", "timestampAnnotation:timestampAnnotation2", "xmlAnnotation:xmlAnnotation1", "xmlAnnotation:xmlAnnotation0" ]
  }, {
    "@id" : "_:b6",
    "@type" : "ome:Font"
  }, {
    "@id" : "_:b7",
    "@type" : "PATO:0000921",
    "unit" : "unitLength:pt",
    "value" : {
      "@type" : "xsd:float",
      "@value" : "2.0"
    }
  }, {
    "@id" : "_:b8",
    "@type" : "ome:Color",
    "value" : "15"
  }, {
    "@id" : "_:b9",
    "@type" : "PATO:0000117",
    "unit" : "unitLength:um",
    "value" : {
      "@type" : "xsd:float",
      "@value" : "100000.0"
    }
  }, {
    "@id" : "acquisitionMode:laserScanningConfocalMicroscopy",
    "@type" : "ome:AcquisitionMode"
  }, {
    "@id" : "acquisitionMode:multiPhotonMicroscopy",
    "@type" : "ome:AcquisitionMode"
  }, {
    "@id" : "dimensionOrder:xyczt",
    "@type" : "ome:DimensionOrder"
  }, {
    "@id" : "fillRule:evenOdd",
    "@type" : "ome:FillRule"
  }, {
    "@id" : "fillRule:nonZero",
    "@type" : "ome:FillRule"
  }, {
    "@id" : "fontFamily:sansSerif",
    "@type" : "ome:FontFamily"
  }, {
    "@id" : "fontFamily:serif",
    "@type" : "ome:FontFamily"
  }, {
    "@id" : "fontStyle:bold",
    "@type" : "ome:FontStyle"
  }, {
    "@id" : "fontStyle:normal",
    "@type" : "ome:FontStyle"
  }, {
    "@id" : "marker:arrow",
    "@type" : "ome:Marker"
  }, {
    "@id" : "pixelType:uint8",
    "@type" : "ome:PixelType"
  }, {
    "@id" : "unitLength:pt",
    "@type" : "rdfs:Class"
  }, {
    "@id" : "unitLength:um",
    "@type" : "rdfs:Class"
  }, {
    "@id" : "bindata:bindata1",
    "@type" : "ome:BinData",
    "ome:bigEndian" : false,
    "data" : "/wCrzur//wB5oMPi/wBIbJO3AP8ePGCF",
    "length" : "32"
  }, {
    "@id" : "bindata:bindata2",
    "@type" : "ome:BinData",
    "ome:bigEndian" : false,
    "data" : "AP+rzuv/AAB5n8Pi/wBHbJO3//8dPGCF",
    "length" : "32"
  }, {
    "@id" : "bindata:bindata3",
    "@type" : "ome:BinData",
    "ome:bigEndian" : false,
    "data" : "//+szuv/AP95n8PiAABHbZO3AP8dPF+G",
    "length" : "32"
  }, {
    "@id" : "channel:channel1",
    "@type" : "ome:Channel",
    "identifier" : "Channel:0",
    "ome:acquisitionMode" : {
      "@id" : "acquisitionMode:laserScanningConfocalMicroscopy"
    },
    "color" : "_:b16"
  }, {
    "@id" : "channel:channel2",
    "@type" : "ome:Channel",
    "identifier" : "Channel:1",
    "ome:acquisitionMode" : {
      "@id" : "acquisitionMode:laserScanningConfocalMicroscopy"
    },
    "color" : "_:b10"
  }, {
    "@id" : "channel:channel3",
    "@type" : "ome:Channel",
    "identifier" : "Channel:2",
    "ome:acquisitionMode" : {
      "@id" : "acquisitionMode:multiPhotonMicroscopy"
    },
    "color" : "_:b13"
  }, {
    "@id" : "dataset:project0",
    "@type" : "ome:Dataset",
    "identifier" : "Dataset:0",
    "annotation" : "xmlAnnotation:xmlAnnotation1",
    "ome:image" : {
      "@id" : "image:image0"
    }
  }, {
    "@id" : "experimenterGroup:experimenterGroup0",
    "@type" : "ome:ExperimenterGroup",
    "identifier" : "ExperimenterGroup:Group:0",
    "experimenter" : "person:experimenter5",
    "leader" : "person:experimenter0",
    "comment" : {
      "@language" : "en",
      "@value" : "A description for my group 0. Complate with basic formatting, like new lines."
    },
    "rdfs:label" : {
      "@language" : "en",
      "@value" : "MyGroup - Leader+Contact match"
    }
  }, {
    "@id" : "experimenterGroup:experimenterGroup1",
    "@type" : "ome:ExperimenterGroup",
    "identifier" : "ExperimenterGroup:Group:1",
    "experimenter" : [ "person:experimenter3", "person:experimenter2" ],
    "leader" : [ "person:experimenter1", "person:experimenter0" ],
    "comment" : {
      "@language" : "en",
      "@value" : "A description for my group 1. Complate with basic formatting, like new lines."
    },
    "rdfs:label" : {
      "@language" : "en",
      "@value" : "MyOtherGroup"
    }
  }, {
    "@id" : "experimenterGroup:experimenterGroup2",
    "@type" : "ome:ExperimenterGroup",
    "identifier" : "ExperimenterGroup:Group:2",
    "experimenter" : "person:experimenter4",
    "leader" : "person:experimenter6",
    "comment" : {
      "@language" : "en",
      "@value" : "A description for my group 2. Complate with basic formatting, like new lines."
    },
    "rdfs:label" : {
      "@language" : "en",
      "@value" : "NoMatch"
    }
  }, {
    "@id" : "experimenterGroup:experimenterGroup3",
    "@type" : "ome:ExperimenterGroup",
    "identifier" : "ExperimenterGroup:Group:3",
    "leader" : "person:experimenter0",
    "comment" : {
      "@language" : "en",
      "@value" : "A description for my group 3. Complate with basic formatting, like new lines."
    },
    "rdfs:label" : {
      "@language" : "en",
      "@value" : "LeaderMatch"
    }
  }, {
    "@id" : "experimenterGroup:experimenterGroup4",
    "@type" : "ome:ExperimenterGroup",
    "identifier" : "ExperimenterGroup:Group:4",
    "leader" : "person:experimenter0",
    "comment" : {
      "@language" : "en",
      "@value" : "A description for my group 4. Complate with basic formatting, like new lines."
    },
    "rdfs:label" : {
      "@language" : "en",
      "@value" : "ContactMatch"
    }
  }, {
    "@id" : "font:shape1",
    "@type" : "ome:Font",
    "ome:fontFamily" : {
      "@id" : "fontFamily:sansSerif"
    },
    "fontSize" : "_:b21",
    "ome:fontStyle" : {
      "@id" : "fontStyle:bold"
    }
  }, {
    "@id" : "font:shape3",
    "@type" : "ome:Font",
    "ome:fontFamily" : {
      "@id" : "fontFamily:serif"
    },
    "ome:fontStyle" : {
      "@id" : "fontStyle:normal"
    }
  }, {
    "@id" : "image:image0",
    "@type" : "ome:Image",
    "identifier" : "Image:0",
    "acquisitionDate" : "2012-03-05T02:48:38",
    "experimenter" : "person:experimenter1",
    "ome:pixels" : {
      "@id" : "pixels:image0"
    },
    "regionOfInterest" : [ "roi:roi2", "roi:roi1", "roi:roi0" ],
    "rdfs:label" : {
      "@language" : "en",
      "@value" : "6x6x1x8-swatch.tif"
    }
  }, {
    "@id" : "instrument:instrument0",
    "@type" : "ome:Instrument",
    "identifier" : "Instrument:0",
    "manufacturerSpec" : "objective:objective0"
  }, {
    "@id" : "label:shape11",
    "@type" : [ "ome:Label", "ome:Shape" ],
    "identifier" : "Shape:11",
    "text" : "Removed Path",
    "x" : "0.0",
    "y" : "0.0"
  }, {
    "@id" : "label:shape12",
    "@type" : [ "ome:Label", "ome:Shape" ],
    "identifier" : "Shape:12",
    "text" : "Removed Path",
    "x" : "0.0",
    "y" : "0.0"
  }, {
    "@id" : "label:shape13",
    "@type" : [ "ome:Label", "ome:Shape" ],
    "identifier" : "Shape:13",
    "text" : "Removed Path",
    "x" : "0.0",
    "y" : "0.0"
  }, {
    "@id" : "label:shape3",
    "@type" : [ "ome:Label", "ome:Shape" ],
    "identifier" : "Shape:3",
    "ome:fillRule" : {
      "@id" : "fillRule:evenOdd"
    },
    "ome:font" : {
      "@id" : "_:b6"
    },
    "text" : "Hello World Text Value!(from shape 3)",
    "x" : "1.0",
    "y" : "1.0"
  }, {
    "@id" : "line:shape7",
    "@type" : [ "ome:Line", "ome:Shape" ],
    "identifier" : "Shape:7",
    "markerEnd" : "marker:arrow",
    "markerStart" : "marker:arrow",
    "strokeColor" : "_:b11",
    "strokeWidth" : "_:b7",
    "x1" : "1.7",
    "x2" : "3.7",
    "y1" : "2.7",
    "y2" : "4.7"
  }, {
    "@id" : "line:shape8",
    "@type" : [ "ome:Line", "ome:Shape" ],
    "identifier" : "Shape:8",
    "markerEnd" : "marker:arrow",
    "strokeColor" : "_:b14",
    "strokeWidth" : "_:b7",
    "x1" : "1.71",
    "x2" : "3.71",
    "y1" : "2.71",
    "y2" : "4.71"
  }, {
    "@id" : "line:shape9",
    "@type" : [ "ome:Line", "ome:Shape" ],
    "identifier" : "Shape:9",
    "markerEnd" : "marker:arrow",
    "strokeColor" : "_:b2",
    "strokeWidth" : "_:b7",
    "x1" : "1.72",
    "x2" : "3.72",
    "y1" : "2.72",
    "y2" : "4.72"
  }, {
    "@id" : "objective:objective0",
    "@type" : [ "ome:Objective", "ome:ManufacturerSpec" ],
    "identifier" : "Objective:0",
    "calibratedMagnification" : "20.34",
    "lotNumber" : "123",
    "manufacturer" : "_:b0",
    "nominalMagnification" : "20.0"
  }, {
    "@id" : "person:experimenter0",
    "@type" : "foaf:Person",
    "identifier" : "Experimenter:0"
  }, {
    "@id" : "person:experimenter1",
    "@type" : "foaf:Person",
    "identifier" : "Experimenter:1",
    "familyName" : {
      "@language" : "en",
      "@value" : "Smith"
    },
    "givenName" : {
      "@language" : "en",
      "@value" : "John"
    },
    "mbox" : "john@example.org",
    "middleName" : {
      "@language" : "en",
      "@value" : "Andrew"
    }
  }, {
    "@id" : "person:experimenter2",
    "@type" : "foaf:Person",
    "identifier" : "Experimenter:2"
  }, {
    "@id" : "person:experimenter3",
    "@type" : "foaf:Person",
    "identifier" : "Experimenter:3"
  }, {
    "@id" : "person:experimenter4",
    "@type" : "foaf:Person",
    "identifier" : "Experimenter:4"
  }, {
    "@id" : "person:experimenter5",
    "@type" : "foaf:Person",
    "identifier" : "Experimenter:5"
  }, {
    "@id" : "person:experimenter6",
    "@type" : "foaf:Person",
    "identifier" : "Experimenter:6"
  }, {
    "@id" : "pixels:image0",
    "@type" : "ome:Pixels",
    "identifier" : "Pixels:0.0",
    "binData" : [ "bindata:bindata2", "bindata:bindata3", "bindata:bindata1" ],
    "ome:channel" : [ {
      "@id" : "channel:channel2"
    }, {
      "@id" : "channel:channel1"
    }, {
      "@id" : "channel:channel3"
    } ],
    "ome:dimensionOrder" : {
      "@id" : "dimensionOrder:xyczt"
    },
    "physicalSizeX" : "_:b9",
    "physicalSizeY" : "_:b9",
    "ome:pixelType" : {
      "@id" : "pixelType:uint8"
    },
    "sizeC" : "3",
    "sizeT" : "1",
    "sizeX" : "6",
    "sizeY" : "4",
    "sizeZ" : "1"
  }, {
    "@id" : "plate:plate0",
    "@type" : "ome:Plate",
    "identifier" : "Plate:0",
    "annotation" : "xmlAnnotation:xmlAnnotation0",
    "ome:plateAcquisition" : {
      "@id" : "plateAcquisition:plate0"
    },
    "ome:well" : {
      "@id" : "well:well0"
    },
    "comment" : {
      "@language" : "en",
      "@value" : "Plate 0 Description"
    }
  }, {
    "@id" : "plate:plate1",
    "@type" : "ome:Plate",
    "identifier" : "Plate:1"
  }, {
    "@id" : "plateAcquisition:plate0",
    "@type" : "ome:PlateAcquisition",
    "identifier" : "PlateAcquisition:0",
    "annotation" : "xmlAnnotation:xmlAnnotation1",
    "comment" : {
      "@language" : "en",
      "@value" : "Plate Acquisition 0 Description"
    }
  }, {
    "@id" : "point:shape0",
    "@type" : [ "ome:Point", "ome:Shape" ],
    "identifier" : "Shape:0",
    "theC" : "0",
    "x" : "1.0",
    "y" : "1.0"
  }, {
    "@id" : "point:shape1",
    "@type" : [ "ome:Shape", "ome:Point" ],
    "identifier" : "Shape:1",
    "fillColor" : "_:b19",
    "ome:fillRule" : {
      "@id" : "fillRule:nonZero"
    },
    "ome:font" : {
      "@id" : "font:shape1"
    },
    "strokeColor" : "_:b19",
    "strokeDashArray" : "1",
    "strokeWidth" : "_:b17",
    "text" : "Hello",
    "theC" : "2",
    "x" : "1.0",
    "y" : "1.0"
  }, {
    "@id" : "point:shape4.0",
    "@type" : "ome:Point",
    "x" : "1.0",
    "y" : "1.0"
  }, {
    "@id" : "point:shape4.1",
    "@type" : "ome:Point",
    "x" : "10.0",
    "y" : "20.0"
  }, {
    "@id" : "point:shape4.2",
    "@type" : "ome:Point",
    "x" : "20.0",
    "y" : "20.0"
  }, {
    "@id" : "point:shape4.3",
    "@type" : "ome:Point",
    "x" : "20.0",
    "y" : "10.0"
  }, {
    "@id" : "point:shape5.0",
    "@type" : "ome:Point",
    "x" : "15.0",
    "y" : "15.0"
  }, {
    "@id" : "point:shape5.1",
    "@type" : "ome:Point",
    "x" : "15.0",
    "y" : "25.0"
  }, {
    "@id" : "point:shape5.2",
    "@type" : "ome:Point",
    "x" : "25.0",
    "y" : "25.0"
  }, {
    "@id" : "point:shape5.3",
    "@type" : "ome:Point",
    "x" : "25.0",
    "y" : "15.0"
  }, {
    "@id" : "point:shape6.0",
    "@type" : "ome:Point",
    "x" : "1.1",
    "y" : "1.1"
  }, {
    "@id" : "point:shape6.1",
    "@type" : "ome:Point",
    "x" : "10.1",
    "y" : "20.1"
  }, {
    "@id" : "point:shape6.2",
    "@type" : "ome:Point",
    "x" : "20.1",
    "y" : "20.1"
  }, {
    "@id" : "point:shape6.3",
    "@type" : "ome:Point",
    "x" : "20.1",
    "y" : "10.1"
  }, {
    "@id" : "polygon:shape4",
    "@type" : [ "ome:Polygon", "ome:Shape" ],
    "identifier" : "Shape:4",
    "ome:point" : [ {
      "@id" : "point:shape4.3"
    }, {
      "@id" : "point:shape4.2"
    }, {
      "@id" : "point:shape4.1"
    }, {
      "@id" : "point:shape4.0"
    } ],
    "strokeColor" : "_:b8",
    "strokeWidth" : "_:b7"
  }, {
    "@id" : "polyline:shape5",
    "@type" : [ "ome:Polyline", "ome:Shape" ],
    "identifier" : "Shape:5",
    "markerEnd" : "marker:arrow",
    "markerStart" : "marker:arrow",
    "ome:point" : [ {
      "@id" : "point:shape5.0"
    }, {
      "@id" : "point:shape5.3"
    }, {
      "@id" : "point:shape5.1"
    }, {
      "@id" : "point:shape5.2"
    } ],
    "strokeColor" : "_:b18",
    "strokeWidth" : "_:b7"
  }, {
    "@id" : "polyline:shape6",
    "@type" : [ "ome:Polyline", "ome:Shape" ],
    "identifier" : "Shape:6",
    "markerStart" : "marker:arrow",
    "ome:point" : [ {
      "@id" : "point:shape6.3"
    }, {
      "@id" : "point:shape6.1"
    }, {
      "@id" : "point:shape6.2"
    }, {
      "@id" : "point:shape6.0"
    } ],
    "strokeColor" : "_:b22",
    "strokeWidth" : "_:b7"
  }, {
    "@id" : "project:project0",
    "@type" : "ome:Project",
    "identifier" : "Project:0",
    "annotation" : "xmlAnnotation:xmlAnnotation0",
    "data:set" : {
      "@id" : "dataset:project0"
    }
  }, {
    "@id" : "protocol:screen0",
    "@type" : "ome:Protocol",
    "identifier" : "ProtocolTest0ID",
    "comment" : {
      "@language" : "en",
      "@value" : "Protocol Description Test0"
    }
  }, {
    "@id" : "protocol:screen1",
    "@type" : "ome:Protocol",
    "identifier" : "ProtocolTest1ID",
    "comment" : {
      "@language" : "en",
      "@value" : "Protocol Description Test1"
    }
  }, {
    "@id" : "protocol:screen2",
    "@type" : "ome:Protocol",
    "identifier" : "ProtocolTest2ID",
    "comment" : {
      "@language" : "en",
      "@value" : "Protocol Description Test2"
    }
  }, {
    "@id" : "protocol:screen3",
    "@type" : "ome:Protocol",
    "identifier" : "ProtocolTest3ID",
    "comment" : {
      "@language" : "en",
      "@value" : "Protocol Description Test3"
    }
  }, {
    "@id" : "reagent:reagent0",
    "@type" : "ome:Reagent",
    "identifier" : "Reagent:0"
  }, {
    "@id" : "reagent:reagent1",
    "@type" : "ome:Reagent",
    "identifier" : "Reagent:1"
  }, {
    "@id" : "reagent:reagent2",
    "@type" : "ome:Reagent",
    "identifier" : "Reagent:2"
  }, {
    "@id" : "reagent:reagent3",
    "@type" : "ome:Reagent",
    "identifier" : "Reagent:3"
  }, {
    "@id" : "reagentSet:screen0",
    "@type" : "ome:ReagentSet",
    "identifier" : "ReagentsXYZ-ID",
    "ome:reagent" : {
      "@id" : "reagent:reagent0"
    },
    "comment" : {
      "@language" : "en",
      "@value" : "Reagents Set XYZ"
    }
  }, {
    "@id" : "reagentSet:screen1",
    "@type" : "ome:ReagentSet",
    "identifier" : "ReagentsPQR-ID",
    "ome:reagent" : {
      "@id" : "reagent:reagent1"
    },
    "comment" : {
      "@language" : "en",
      "@value" : "Reragents Set PQR"
    }
  }, {
    "@id" : "reagentSet:screen2",
    "@type" : "ome:ReagentSet",
    "identifier" : "ReagentsIJK-ID",
    "ome:reagent" : {
      "@id" : "reagent:reagent2"
    },
    "comment" : {
      "@language" : "en",
      "@value" : "Reagents Set IJK"
    }
  }, {
    "@id" : "reagentSet:screen3",
    "@type" : "ome:ReagentSet",
    "identifier" : "ReagentsAJP-ID",
    "ome:reagent" : {
      "@id" : "reagent:reagent3"
    },
    "comment" : {
      "@language" : "en",
      "@value" : "Reagents Set AJP"
    }
  }, {
    "@id" : "rectangle:shape2",
    "@type" : [ "ome:Rectangle", "ome:Shape" ],
    "identifier" : "Shape:2",
    "ome:fillRule" : {
      "@id" : "fillRule:evenOdd"
    },
    "height" : "4.0",
    "text" : "Hi There! (from shape 2)",
    "tramsform" : "transform:rectangle_shape2",
    "width" : "3.0",
    "x" : "1.0",
    "y" : "2.0"
  }, {
    "@id" : "roi:roi0",
    "@type" : "ome:RegionOfInterest",
    "identifier" : "ROI:0",
    "union" : "_:b20"
  }, {
    "@id" : "roi:roi1",
    "@type" : "ome:RegionOfInterest",
    "identifier" : "ROI:1",
    "union" : "_:b15",
    "comment" : {
      "@language" : "en",
      "@value" : "ROI 1 Upgradable description"
    }
  }, {
    "@id" : "roi:roi2",
    "@type" : "ome:RegionOfInterest",
    "identifier" : "ROI:2",
    "union" : "_:b3"
  }, {
    "@id" : "roi:roi3",
    "@type" : "ome:RegionOfInterest",
    "identifier" : "ROI:3",
    "union" : "_:b12"
  }, {
    "@id" : "roi:roi4",
    "@type" : "ome:RegionOfInterest",
    "identifier" : "ROI:4",
    "union" : "_:b1"
  }, {
    "@id" : "screen:screen0",
    "@type" : "ome:Screen",
    "identifier" : "Screen:0",
    "annotation" : "xmlAnnotation:xmlAnnotation1",
    "ome:plate" : {
      "@id" : "plate:plate0"
    },
    "ome:protocol" : {
      "@id" : "protocol:screen0"
    },
    "ome:reagentSet" : {
      "@id" : "reagentSet:screen0"
    },
    "screenType" : "ScreenType0",
    "comment" : {
      "@language" : "en",
      "@value" : "Screen 0 Description"
    },
    "rdfs:label" : {
      "@language" : "en",
      "@value" : "ScreenName0"
    }
  }, {
    "@id" : "screen:screen1",
    "@type" : "ome:Screen",
    "identifier" : "Screen:1",
    "annotation" : "xmlAnnotation:xmlAnnotation1",
    "ome:plate" : [ {
      "@id" : "plate:plate1"
    }, {
      "@id" : "plate:plate0"
    } ],
    "ome:protocol" : {
      "@id" : "protocol:screen1"
    },
    "ome:reagentSet" : {
      "@id" : "reagentSet:screen1"
    },
    "screenType" : "ScreenType1",
    "comment" : {
      "@language" : "en",
      "@value" : "Screen 1 Description"
    },
    "rdfs:label" : {
      "@language" : "en",
      "@value" : "ScreenName1"
    }
  }, {
    "@id" : "screen:screen2",
    "@type" : "ome:Screen",
    "identifier" : "Screen:2",
    "annotation" : "xmlAnnotation:xmlAnnotation1",
    "ome:protocol" : {
      "@id" : "protocol:screen2"
    },
    "ome:reagentSet" : {
      "@id" : "reagentSet:screen2"
    },
    "screenType" : "ScreenType2",
    "comment" : {
      "@language" : "en",
      "@value" : "Screen 2 Description"
    },
    "rdfs:label" : {
      "@language" : "en",
      "@value" : "ScreenName2"
    }
  }, {
    "@id" : "screen:screen3",
    "@type" : "ome:Screen",
    "identifier" : "Screen:3",
    "annotation" : "xmlAnnotation:xmlAnnotation1",
    "ome:plate" : {
      "@id" : "plate:plate0"
    },
    "ome:protocol" : {
      "@id" : "protocol:screen3"
    },
    "ome:reagentSet" : {
      "@id" : "reagentSet:screen3"
    },
    "screenType" : "ScreenType3",
    "comment" : {
      "@language" : "en",
      "@value" : "Screen 3 Description"
    },
    "rdfs:label" : {
      "@language" : "en",
      "@value" : "ScreenName3"
    }
  }, {
    "@id" : "timestampAnnotation:timestampAnnotation2",
    "@type" : [ "ome:TimestampAnnotation", "ome:Annotation" ],
    "identifier" : "Annotation:2",
    "nameSpace" : "sample.openmicroscopy.org/time/retirement",
    "value" : "2037-12-15T17:30:00"
  }, {
    "@id" : "timestampAnnotation:timestampAnnotation3",
    "@type" : [ "ome:TimestampAnnotation", "ome:Annotation" ],
    "identifier" : "Annotation:3",
    "nameSpace" : "sample.openmicroscopy.org/time/post1972",
    "value" : "1996-03-23T14:45:00"
  }, {
    "@id" : "timestampAnnotation:timestampAnnotation4",
    "@type" : [ "ome:TimestampAnnotation", "ome:Annotation" ],
    "identifier" : "Annotation:4",
    "nameSpace" : "sample.openmicroscopy.org/time/1970-1972",
    "value" : "1971-05-06T18:34:59"
  }, {
    "@id" : "transform:rectangle_shape2",
    "@type" : "ome:AffineTransform",
    "a00" : "10.0",
    "a01" : "30.0",
    "a02" : "50.0",
    "a10" : "20.0",
    "a11" : "40.0",
    "a12" : "60.0"
  }, {
    "@id" : "well:well0",
    "@type" : "ome:Well",
    "identifier" : "Well:0",
    "color" : "_:b4",
    "column" : "1",
    "row" : "1",
    "ome:wellSample" : {
      "@id" : "wellSample:well0"
    },
    "wellType" : "TheWell0Status"
  }, {
    "@id" : "wellSample:well0",
    "@type" : "ome:WellSample",
    "identifier" : "WellSample:0",
    "ome:image" : {
      "@id" : "image:image0"
    },
    "index" : "1"
  }, {
    "@id" : "xmlAnnotation:xmlAnnotation0",
    "@type" : [ "ome:XMLAnnotation", "ome:Annotation" ],
    "identifier" : "Annotation:0",
    "value" : {
      "@type" : "rdf:XMLLiteral",
      "@value" : "<test1/>"
    }
  }, {
    "@id" : "xmlAnnotation:xmlAnnotation1",
    "@type" : [ "ome:XMLAnnotation", "ome:Annotation" ],
    "identifier" : "Annotation:1",
    "value" : {
      "@type" : "rdf:XMLLiteral",
      "@value" : "<test2/>"
    }
  } ],
  "@context" : {
    "y" : {
      "@id" : "http://www.openmicroscopy.org/rdf/2016-06/ome_core/y",
      "@type" : "http://www.w3.org/2001/XMLSchema#float"
    },
    "x" : {
      "@id" : "http://www.openmicroscopy.org/rdf/2016-06/ome_core/x",
      "@type" : "http://www.w3.org/2001/XMLSchema#float"
    },
    "calibratedMagnification" : {
      "@id" : "http://www.openmicroscopy.org/rdf/2016-06/ome_core/calibratedMagnification",
      "@type" : "http://www.w3.org/2001/XMLSchema#float"
    },
    "nominalMagnification" : {
      "@id" : "http://www.openmicroscopy.org/rdf/2016-06/ome_core/nominalMagnification",
      "@type" : "http://www.w3.org/2001/XMLSchema#float"
    },
    "manufacturer" : {
      "@id" : "http://www.openmicroscopy.org/rdf/2016-06/ome_core/manufacturer",
      "@type" : "@id"
    },
    "lotNumber" : {
      "@id" : "http://www.openmicroscopy.org/rdf/2016-06/ome_core/lotNumber"
    },
    "identifier" : {
      "@id" : "http://purl.org/dc/terms/identifier"
    },
    "union" : {
      "@id" : "http://www.openmicroscopy.org/rdf/2016-06/ome_core/union",
      "@type" : "@id"
    },
    "value" : {
      "@id" : "http://www.w3.org/1999/02/22-rdf-syntax-ns#value"
    },
    "leader" : {
      "@id" : "http://www.openmicroscopy.org/rdf/2016-06/ome_core/leader",
      "@type" : "@id"
    },
    "comment" : {
      "@id" : "http://www.w3.org/2000/01/rdf-schema#comment"
    },
    "label" : "http://www.openmicroscopy.org/rdf/2016-06/ome_core/samples/timestampAnnotation-posix-only/label/",
    "a12" : {
      "@id" : "http://www.openmicroscopy.org/rdf/2016-06/ome_core/a12",
      "@type" : "http://www.w3.org/2001/XMLSchema#float"
    },
    "a11" : {
      "@id" : "http://www.openmicroscopy.org/rdf/2016-06/ome_core/a11",
      "@type" : "http://www.w3.org/2001/XMLSchema#float"
    },
    "a10" : {
      "@id" : "http://www.openmicroscopy.org/rdf/2016-06/ome_core/a10",
      "@type" : "http://www.w3.org/2001/XMLSchema#float"
    },
    "a02" : {
      "@id" : "http://www.openmicroscopy.org/rdf/2016-06/ome_core/a02",
      "@type" : "http://www.w3.org/2001/XMLSchema#float"
    },
    "a01" : {
      "@id" : "http://www.openmicroscopy.org/rdf/2016-06/ome_core/a01",
      "@type" : "http://www.w3.org/2001/XMLSchema#float"
    },
    "a00" : {
      "@id" : "http://www.openmicroscopy.org/rdf/2016-06/ome_core/a00",
      "@type" : "http://www.w3.org/2001/XMLSchema#float"
    },
    "text" : {
      "@id" : "http://www.openmicroscopy.org/rdf/2016-06/ome_core/text"
    },
    "li" : {
      "@id" : "http://www.w3.org/1999/02/22-rdf-syntax-ns#li",
      "@type" : "@id"
    },
    "annotation" : {
      "@id" : "http://www.openmicroscopy.org/rdf/2016-06/ome_core/annotation",
      "@type" : "@id"
    },
    "mbox" : {
      "@id" : "http://xmlns.com/foaf/0.1/mbox"
    },
    "familyName" : {
      "@id" : "http://xmlns.com/foaf/0.1/familyName"
    },
    "middleName" : {
      "@id" : "http://xmlns.com/foaf/0.1/middleName"
    },
    "givenName" : {
      "@id" : "http://xmlns.com/foaf/0.1/givenName"
    },
    "point" : "http://www.openmicroscopy.org/rdf/2016-06/ome_core/samples/timestampAnnotation-posix-only/point/",
    "strokeWidth" : {
      "@id" : "http://www.openmicroscopy.org/rdf/2016-06/ome_core/strokeWidth",
      "@type" : "@id"
    },
    "strokeColor" : {
      "@id" : "http://www.openmicroscopy.org/rdf/2016-06/ome_core/strokeColor",
      "@type" : "@id"
    },
    "length" : {
      "@id" : "http://www.openmicroscopy.org/rdf/2016-06/ome_core/length",
      "@type" : "http://www.w3.org/2001/XMLSchema#nonNegativeLong"
    },
    "data" : {
      "@id" : "http://www.openmicroscopy.org/rdf/2016-06/ome_core/data",
      "@type" : "http://www.w3.org/2001/XMLSchema#base64Binary"
    },
    "bigEndian" : {
      "@id" : "http://www.openmicroscopy.org/rdf/2016-06/ome_core/bigEndian",
      "@type" : "http://www.w3.org/2001/XMLSchema#boolean"
    },
    "unit" : {
      "@id" : "http://qudt.org/schema/qudt/unit",
      "@type" : "@id"
    },
    "reagent" : "http://www.openmicroscopy.org/rdf/2016-06/ome_core/samples/timestampAnnotation-posix-only/reagent/",
    "dataset" : "http://www.openmicroscopy.org/rdf/2016-06/ome_core/samples/timestampAnnotation-posix-only/dataset/",
    "acquisitionMode" : "http://www.openmicroscopy.org/rdf/2016-06/ome_core/AcquisitionMode#",
    "color" : {
      "@id" : "http://www.openmicroscopy.org/rdf/2016-06/ome_core/color",
      "@type" : "@id"
    },
    "binData" : {
      "@id" : "http://www.openmicroscopy.org/rdf/2016-06/ome_core/binData",
      "@type" : "@id"
    },
    "sizeZ" : {
      "@id" : "http://www.openmicroscopy.org/rdf/2016-06/ome_core/sizeZ",
      "@type" : "http://www.w3.org/2001/XMLSchema#positiveInteger"
    },
    "sizeY" : {
      "@id" : "http://www.openmicroscopy.org/rdf/2016-06/ome_core/sizeY",
      "@type" : "http://www.w3.org/2001/XMLSchema#positiveInteger"
    },
    "channel" : "http://www.openmicroscopy.org/rdf/2016-06/ome_core/samples/timestampAnnotation-posix-only/channel/",
    "physicalSizeY" : {
      "@id" : "http://www.openmicroscopy.org/rdf/2016-06/ome_core/physicalSizeY",
      "@type" : "@id"
    },
    "physicalSizeX" : {
      "@id" : "http://www.openmicroscopy.org/rdf/2016-06/ome_core/physicalSizeX",
      "@type" : "@id"
    },
    "dimensionOrder" : "http://www.openmicroscopy.org/rdf/2016-06/ome_core/DimensionOrder#",
    "sizeT" : {
      "@id" : "http://www.openmicroscopy.org/rdf/2016-06/ome_core/sizeT",
      "@type" : "http://www.w3.org/2001/XMLSchema#positiveInteger"
    },
    "sizeC" : {
      "@id" : "http://www.openmicroscopy.org/rdf/2016-06/ome_core/sizeC",
      "@type" : "http://www.w3.org/2001/XMLSchema#positiveInteger"
    },
    "pixelType" : "http://www.openmicroscopy.org/rdf/2016-06/ome_core/PixelType#",
    "sizeX" : {
      "@id" : "http://www.openmicroscopy.org/rdf/2016-06/ome_core/sizeX",
      "@type" : "http://www.w3.org/2001/XMLSchema#positiveInteger"
    },
    "markerEnd" : {
      "@id" : "http://www.openmicroscopy.org/rdf/2016-06/ome_core/markerEnd",
      "@type" : "@id"
    },
    "y2" : {
      "@id" : "http://www.openmicroscopy.org/rdf/2016-06/ome_core/y2",
      "@type" : "http://www.w3.org/2001/XMLSchema#float"
    },
    "x1" : {
      "@id" : "http://www.openmicroscopy.org/rdf/2016-06/ome_core/x1",
      "@type" : "http://www.w3.org/2001/XMLSchema#float"
    },
    "y1" : {
      "@id" : "http://www.openmicroscopy.org/rdf/2016-06/ome_core/y1",
      "@type" : "http://www.w3.org/2001/XMLSchema#float"
    },
    "x2" : {
      "@id" : "http://www.openmicroscopy.org/rdf/2016-06/ome_core/x2",
      "@type" : "http://www.w3.org/2001/XMLSchema#float"
    },
    "protocol" : "http://www.openmicroscopy.org/rdf/2016-06/ome_core/samples/timestampAnnotation-posix-only/protocol/",
    "reagentSet" : "http://www.openmicroscopy.org/rdf/2016-06/ome_core/samples/timestampAnnotation-posix-only/reagentSet/",
    "plate" : "http://www.openmicroscopy.org/rdf/2016-06/ome_core/samples/timestampAnnotation-posix-only/plate/",
    "screenType" : {
      "@id" : "http://www.openmicroscopy.org/rdf/2016-06/ome_core/screenType"
    },
    "experimenter" : {
      "@id" : "http://www.openmicroscopy.org/rdf/2016-06/ome_core/experimenter",
      "@type" : "@id"
    },
    "fillColor" : {
      "@id" : "http://www.openmicroscopy.org/rdf/2016-06/ome_core/fillColor",
      "@type" : "@id"
    },
    "theC" : {
      "@id" : "http://www.openmicroscopy.org/rdf/2016-06/ome_core/theC",
      "@type" : "http://www.w3.org/2001/XMLSchema#nonNegativeInteger"
    },
    "fillRule" : "http://www.openmicroscopy.org/rdf/2016-06/ome_core/FillRule#",
    "font" : "http://www.openmicroscopy.org/rdf/2016-06/ome_core/samples/timestampAnnotation-posix-only/font/",
    "strokeDashArray" : {
      "@id" : "http://www.openmicroscopy.org/rdf/2016-06/ome_core/strokeDashArray"
    },
    "nameSpace" : {
      "@id" : "http://www.openmicroscopy.org/rdf/2016-06/ome_core/nameSpace"
    },
    "image" : "http://www.openmicroscopy.org/rdf/2016-06/ome_core/samples/timestampAnnotation-posix-only/image/",
    "fontFamily" : "http://www.openmicroscopy.org/rdf/2016-06/ome_core/FontFamily#",
    "fontStyle" : "http://www.openmicroscopy.org/rdf/2016-06/ome_core/FontStyle#",
    "plateAcquisition" : "http://www.openmicroscopy.org/rdf/2016-06/ome_core/samples/timestampAnnotation-posix-only/plateAcquisition/",
    "well" : "http://www.openmicroscopy.org/rdf/2016-06/ome_core/samples/timestampAnnotation-posix-only/well/",
    "markerStart" : {
      "@id" : "http://www.openmicroscopy.org/rdf/2016-06/ome_core/markerStart",
      "@type" : "@id"
    },
    "height" : {
      "@id" : "http://www.openmicroscopy.org/rdf/2016-06/ome_core/height",
      "@type" : "http://www.w3.org/2001/XMLSchema#float"
    },
    "tramsform" : {
      "@id" : "http://www.openmicroscopy.org/rdf/2016-06/ome_core/tramsform",
      "@type" : "@id"
    },
    "width" : {
      "@id" : "http://www.openmicroscopy.org/rdf/2016-06/ome_core/width",
      "@type" : "http://www.w3.org/2001/XMLSchema#float"
    },
    "wellType" : {
      "@id" : "http://www.openmicroscopy.org/rdf/2016-06/ome_core/wellType"
    },
    "column" : {
      "@id" : "http://www.openmicroscopy.org/rdf/2016-06/ome_core/column",
      "@type" : "http://www.w3.org/2001/XMLSchema#nonNegativeInteger"
    },
    "row" : {
      "@id" : "http://www.openmicroscopy.org/rdf/2016-06/ome_core/row",
      "@type" : "http://www.w3.org/2001/XMLSchema#nonNegativeInteger"
    },
    "wellSample" : "http://www.openmicroscopy.org/rdf/2016-06/ome_core/samples/timestampAnnotation-posix-only/wellSample/",
    "manufacturerSpec" : {
      "@id" : "http://www.openmicroscopy.org/rdf/2016-06/ome_core/manufacturerSpec",
      "@type" : "@id"
    },
    "regionOfInterest" : {
      "@id" : "http://www.openmicroscopy.org/rdf/2016-06/ome_core/regionOfInterest",
      "@type" : "@id"
    },
    "acquisitionDate" : {
      "@id" : "http://www.openmicroscopy.org/rdf/2016-06/ome_core/acquisitionDate"
    },
    "pixels" : "http://www.openmicroscopy.org/rdf/2016-06/ome_core/samples/timestampAnnotation-posix-only/pixels/",
    "fontSize" : {
      "@id" : "http://www.openmicroscopy.org/rdf/2016-06/ome_core/fontSize",
      "@type" : "@id"
    },
    "index" : {
      "@id" : "http://www.openmicroscopy.org/rdf/2016-06/ome_core/index",
      "@type" : "http://www.w3.org/2001/XMLSchema#nonNegativeInteger"
    },
    "qudt" : "http://qudt.org/schema/qudt/",
    "owl" : "http://www.w3.org/2002/07/owl#",
    "ome" : "http://www.openmicroscopy.org/rdf/2016-06/ome_core/",
    "line" : "http://www.openmicroscopy.org/rdf/2016-06/ome_core/samples/timestampAnnotation-posix-only/line/",
    "xsd" : "http://www.w3.org/2001/XMLSchema#",
    "PATO" : "http://purl.obolibrary.org/obo/PATO_",
    "screen" : "http://www.openmicroscopy.org/rdf/2016-06/ome_core/samples/timestampAnnotation-posix-only/screen/",
    "project" : "http://www.openmicroscopy.org/rdf/2016-06/ome_core/samples/timestampAnnotation-posix-only/project/",
    "rdfs" : "http://www.w3.org/2000/01/rdf-schema#",
    "instrument" : "http://www.openmicroscopy.org/rdf/2016-06/ome_core/samples/timestampAnnotation-posix-only/instrument/",
    "xmlAnnotation" : "http://www.openmicroscopy.org/rdf/2016-06/ome_core/samples/timestampAnnotation-posix-only/xmlAnnotation/",
    "roi" : "http://www.openmicroscopy.org/rdf/2016-06/ome_core/samples/timestampAnnotation-posix-only/regionOfInterest/",
    "objective" : "http://www.openmicroscopy.org/rdf/2016-06/ome_core/samples/timestampAnnotation-posix-only/objective/",
    "transform" : "http://www.openmicroscopy.org/rdf/2016-06/ome_core/samples/timestampAnnotation-posix-only/transform/",
    "unitLength" : "http://www.openmicroscopy.org/rdf/2016-06/ome_core/Unit/UnitLength#",
    "xml" : "http://www.w3.org/XML/1998/namespace",
    "timestampAnnotation" : "http://www.openmicroscopy.org/rdf/2016-06/ome_core/samples/timestampAnnotation-posix-only/timestampAnnotation-posix-only/",
    "dcterms" : "http://purl.org/dc/terms/",
    "UO" : "http://purl.obolibrary.org/obo/uo#",
    "foaf" : "http://xmlns.com/foaf/0.1/",
    "experimenterGroup" : "http://www.openmicroscopy.org/rdf/2016-06/ome_core/samples/timestampAnnotation-posix-only/experimenterGroup/",
    "polygon" : "http://www.openmicroscopy.org/rdf/2016-06/ome_core/samples/timestampAnnotation-posix-only/polygon/",
    "rdf" : "http://www.w3.org/1999/02/22-rdf-syntax-ns#",
    "marker" : "http://www.openmicroscopy.org/rdf/2016-06/ome_core/Marker#",
    "person" : "http://www.openmicroscopy.org/rdf/2016-06/ome_core/samples/timestampAnnotation-posix-only/person/",
    "rectangle" : "http://www.openmicroscopy.org/rdf/2016-06/ome_core/samples/timestampAnnotation-posix-only/rectangle/",
    "bindata" : "http://www.openmicroscopy.org/rdf/2016-06/ome_core/samples/timestampAnnotation-posix-only/bindata/",
    "polyline" : "http://www.openmicroscopy.org/rdf/2016-06/ome_core/samples/timestampAnnotation-posix-only/polyline/"
  }
}
